{
  "success": true,
  "code": "1000",
  "message": "요청을 성공적으로 처리하였습니다.",
  "lang": "ko",
  "country": "KR",
  "result": {
    "commentList": [
      {
        "ticket": "news",
        "objectId": "news005,0001631566",
        "categoryId": "*",
        "templateId": "view_society",
        "commentNo": "800553593110265951",
        "parentCommentNo": "800553593110265951",
        "replyLevel": 1,
        "replyCount": 2,
        "replyAllCount": 4,
        "replyPreviewNo": null,
        "replyList": null,
        "imageCount": 0,
        "imageList": null,
        "imagePathList": null,
        "imageWidthList": null,
        "imageHeightList": null,
        "commentType": "txt",
        "stickerId": null,
        "sticker": null,
        "sortValue": 1692258433977,
        "contents": "선생님이 어린학생을 폭행하면안됩니다  폭행과 훈육은 엄연히달라.어린학생을 폭행한 교사는 법의 심판을 받아야합니다..",
        "userIdNo": "3BqMR",
        "exposedUserIp": null,
        "lang": "ko",
        "country": "KR",
        "idType": "naver",
        "idProvider": "naver",
        "userName": "lss8****",
        "userProfileImage": null,
        "profileType": "naver",
        "modTime": "2023-08-17T16:47:13+0900",
        "modTimeGmt": "2023-08-17T07:47:13+0000",
        "regTime": "2023-08-17T16:47:13+0900",
        "regTimeGmt": "2023-08-17T07:47:13+0000",
        "sympathyCount": 408,
        "antipathyCount": 18,
        "hideReplyButton": false,
        "status": 0,
        "mine": false,
        "best": false,
        "mentions": null,
        "toUser": null,
        "userStatus": 0,
        "categoryImage": null,
        "open": false,
        "levelCode": null,
        "grades": null,
        "sympathy": false,
        "antipathy": false,
        "metaInfo": null,
        "extension": null,
        "translation": null,
        "report": null,
        "middleBlindReport": false,
        "spamInfo": null,
        "userHomepageUrl": null,
        "defamation": false,
        "hiddenByCleanbot": false,
        "score": 0.0,
        "ratings": null,
        "following": false,
        "managerLike": false,
        "pick": false,
        "attachmentList": [],
        "reference": null,
        "inspectionId": null,
        "visible": true,
        "deleted": false,
        "idNo": "3BqMR",
        "manager": false,
        "blindReport": false,
        "expose": true,
        "chattingBridge": false,
        "serviceId": "news",
        "maskedUserId": "lss8****",
        "maskedUserName": "ls****",
        "blind": false,
        "secret": false,
        "validateBanWords": false,
        "profileUserId": null,
        "userBlocked": false,
        "exposeByCountry": true,
        "containText": true,
        "virtual": false,
        "originalStatus": 0,
        "anonymous": false
      }
    ],
    "pageModel": {
      "page": 1,
      "pageSize": 5,
      "indexSize": 10,
      "startRow": 1,
      "endRow": 5,
      "totalRows": 216,
      "startIndex": 0,
      "totalPages": 44,
      "firstPage": 1,
      "prevPage": 0,
      "nextPage": 2,
      "lastPage": 10,
      "current": null,
      "threshold": null,
      "moveToLastPage": false,
      "moveToComment": false,
      "moveToLastPrev": false
    },
    "morePage": {
      "prev": "10000au0000bc062ykkbk8lqan",
      "next": "100001i00001i062ykhto65bok",
      "start": "10000au0000bc062ykkbk8lqan",
      "end": "0zik0za000001062ykmaw67vhl"
    },
    "exposureConfig": {
      "reason": null,
      "status": "COMMENT_ON"
    },
    "count": {
      "comment": 216,
      "reply": 66,
      "exposeCount": 217,
      "delCommentByUser": 15,
      "delCommentByMon": 0,
      "blindCommentByUser": 0,
      "blindReplyByUser": 0,
      "total": 282
    },
    "listStatus": "current",
    "sort": "FAVORITE",
    "bestList": []
  },
  "date": "2023-08-18T03:42:39+0000"
}